[api-updater (non-obsolete-error-filter)] 15/06/2022 0:16:52 : Starting C:/Program Files/Unity/Hub/Editor/2020.3.30f1/Editor/Data/Tools/ScriptUpdater/APIUpdater.NonObsoleteApiUpdaterDetector.exe
[api-updater (non-obsolete-error-filter)] 
----------------------------------
jit/startup time      : 100,0128ms
moved types parse time: 61ms
candidates parse time : 1ms
C# parse time         : 259ms
candidates check time : 43ms
console write time    : 1ms

[api-updater (non-obsolete-error-filter)] 15/06/2022 0:51:03 : Starting C:/Program Files/Unity/Hub/Editor/2020.3.30f1/Editor/Data/Tools/ScriptUpdater/APIUpdater.NonObsoleteApiUpdaterDetector.exe
[api-updater (non-obsolete-error-filter)] 
----------------------------------
jit/startup time      : 109,0101ms
moved types parse time: 98ms
candidates parse time : 2ms
C# parse time         : 300ms
candidates check time : 62ms
console write time    : 0ms

[api-updater (non-obsolete-error-filter)] 15/06/2022 0:52:01 : Starting C:/Program Files/Unity/Hub/Editor/2020.3.30f1/Editor/Data/Tools/ScriptUpdater/APIUpdater.NonObsoleteApiUpdaterDetector.exe
[api-updater (non-obsolete-error-filter)] 
----------------------------------
jit/startup time      : 121,033ms
moved types parse time: 98ms
candidates parse time : 2ms
C# parse time         : 377ms
candidates check time : 71ms
console write time    : 0ms

[api-updater (non-obsolete-error-filter)] 15/06/2022 0:52:48 : Starting C:/Program Files/Unity/Hub/Editor/2020.3.30f1/Editor/Data/Tools/ScriptUpdater/APIUpdater.NonObsoleteApiUpdaterDetector.exe
[api-updater (non-obsolete-error-filter)] 
----------------------------------
jit/startup time      : 103,0084ms
moved types parse time: 96ms
candidates parse time : 2ms
C# parse time         : 365ms
candidates check time : 62ms
console write time    : 1ms

[api-updater (non-obsolete-error-filter)] 15/06/2022 1:17:23 : Starting C:/Program Files/Unity/Hub/Editor/2020.3.30f1/Editor/Data/Tools/ScriptUpdater/APIUpdater.NonObsoleteApiUpdaterDetector.exe
[api-updater (non-obsolete-error-filter)] 
----------------------------------
jit/startup time      : 124,008ms
moved types parse time: 72ms
candidates parse time : 1ms
C# parse time         : 291ms
candidates check time : 58ms
console write time    : 1ms

[api-updater (non-obsolete-error-filter)] 15/06/2022 1:17:27 : Starting C:/Program Files/Unity/Hub/Editor/2020.3.30f1/Editor/Data/Tools/ScriptUpdater/APIUpdater.NonObsoleteApiUpdaterDetector.exe
[api-updater (non-obsolete-error-filter)] 
----------------------------------
jit/startup time      : 104,0064ms
moved types parse time: 86ms
candidates parse time : 2ms
C# parse time         : 361ms
candidates check time : 69ms
console write time    : 1ms

